Expand a "tidy" data frame with matsindf-style matrices to a "tidy" data frame with each matrix entry as an observation — expand_to_tidy • matsindf
…
                                 ptype, ptype, ptype, ptype, NA, NA),
                  coltypes  = c(itype, itype, itype, itype, itype, ptype, ptype,
                                itype, itype, itype, itype, NA, NA),
                  vals  = c(    11  ,  22,    11 ,   22 ,   23 ,   11 ,   22 ,
                                11 ,   12 ,   11 ,   22,   0.2, 0.3)) %>%
  group_by(Country, Year, matrix)
mats <- collapse_to_matrices(tidy, matnames = "matrix", rownames = "row", colnames = "col",
                             rowtypes = "rowtypes", coltypes = "coltypes",
                             matvals = "vals") %>%
  ungroup()
expand_to_tidy(mats, matnames = "matrix", matvals = "vals",
                     rownames = "rows", colnames = "cols",
                     rowtypes = "rt",   coltypes = "ct")

#> # A tibble: 22 × 8
#>    Country  Year matrix rows  cols   vals rt         ct        
#>    <chr>   <dbl> <chr>  <chr> <chr> <dbl> <chr>      <chr>     
#>  1 GH       1971 eta    NA    NA      0.2 NA         NA        
#>  2 GH       1971 U      c1    i1     11   Products   Industries
#>  3 GH       1971 U      c2    i1      0   Products   Industries
#>  4 GH       1971 U      c1    i2      0   Products   Industries
#>  5 GH       1971 U      c2    i2     22   Products   Industries
#>  6 GH       1971 V      i1    c1     11   Industries Products  
#>  7 GH       1971 V      i2    c1      0   Industries Products  
#>  8 GH       1971 V      i1    c2      0   Industries Products  
#>  9 GH       1971 V      i2    c2     22   Industries Products  
#> 10 GH       1971 Y      c1    i1     11   Products   Industries
#> # … with 12 more rows
…
